{
  "responseCode": 0,
  "response": {
    "Message": "Success",
    "data": {
      "links": {
        "next": "http://local-email.grouprm.net/notification/mail-server/?project=1&page=2",
        "previous": null
      },
      "count": 50,
      "results": [
        {
          "message_id": "<1651233503.27131889.1750219666018@lor1-app85422.prod.linkedin.com>",
          "thread_id": "1835238338366488291",
          "folder": "INBOX",
          "labels": ["\\Seen"],
          "from_address": "LinkedIn <groups-noreply@linkedin.com>",
          "to": ["Bothraj P <bothrajvasu@gmail.com>"],
          "cc": [],
          "bcc": [],
          "subject": "Don’t miss conversations in Artificial Intelligence, Machine Learning, Data Science, Agentic, Generative AI, Scientist & Analyst",
          "is_read": true,
          "is_starred": true,
          "is_deleted":false,
          "has_attachment": false,
          "snippet": "Don’t miss conversations in Artificial Intelligence, Machine Learning, Data Science, Agentic, Generative AI, Scientist & Analyst    ..................",
          "intent": null,
          "created_at": "2025-07-02T11:23:44.589000Z",
          "updated_at": null,
          "entities": {},
          "message_response": []
        },
        {
          "message_id": "<20250618003113.e81c08a7c2ebd70b@cio54818.mail.apollo.io>",
          "thread_id": "1835224712814259576",
          "folder": "INBOX",
          "labels": ["\\Seen"],
          "from_address": "Apollo <hello@mail.apollo.io>",
          "to": ["bothrajvasu@gmail.com"],
          "cc": [],
          "bcc": [],
          "subject": "✅ You've finished 1 of 8 tasks in your onboarding checklist.",
          "is_read": true,
          "is_starred": false,
          "is_deleted":false,
          "has_attachment": false,
          "snippet": "You're on your way! Every task completed is one step closer to crushing quota. ( https://app.apollo.io/?utm_campaign=2501_LC_Onboarding_FreeUsers&utm_",
          "intent": null,
          "created_at": "2025-07-02T11:23:44.583000Z",
          "updated_at": null,
          "entities": {},
          "message_response": []
        },
        {
          "message_id": "<2006041411.25641024.1750185945634@lor1-app81930.prod.linkedin.com>",
          "thread_id": "1835195436127033543",
          "folder": "INBOX",
          "labels": ["\\Seen"],
          "from_address": "LinkedIn Job Alerts <jobalerts-noreply@linkedin.com>",
          "to": ["Bothraj P <bothrajvasu@gmail.com>"],
          "cc": [],
          "bcc": [],
          "subject": "“software engineer”: Globalcareers-Cotiviti - Software Engineer and more",
          "is_read": true,
          "is_starred": false,
          "is_deleted":false,
          "has_attachment": false,
          "snippet": "Your job alert for software engineer in Chennai  30+ new jobs match your preferences.              Software Engineer  Cotiviti  India  This company is",
          "intent": null,
          "created_at": "2025-07-02T11:23:44.576000Z",
          "updated_at": null,
          "entities": {},
          "message_response": []
        },
        {
          "message_id": "<5kXfqCN5SLyfMv_WZvFDKw@geopod-ismtpd-39>",
          "thread_id": "1835200489559893473",
          "folder": "INBOX",
          "labels": ["\\Seen"],
          "from_address": "\"Udemy Instructor: SuperDataScience Team\" <no-reply@e.udemymail.com>",
          "to": ["bothrajvasu@gmail.com"],
          "cc": [],
          "bcc": [],
          "subject": "🚀 Big Shifts in Data Science, AI & Machine Learning 🤖",
          "is_read": false,
          "is_starred": false,
          "is_deleted":false,
          "has_attachment": false,
          "snippet": "",
          "intent": null,
          "created_at": "2025-07-02T11:23:44.567000Z",
          "updated_at": null,
          "entities": {},
          "message_response": []
        },
        {
          "message_id": "<nseil/01977eaa-dab8-7214-a952-e13c669941a1/transactional/swift/nse-direct@uci.nse.co.in>",
          "thread_id": "1835198946149319061",
          "folder": "INBOX",
          "labels": ["\\Seen"],
          "from_address": "\"nse-direct\" <nse-direct@nse.co.in>",
          "to": ["bothrajvasu@gmail.com"],
          "cc": [],
          "bcc": [],
          "subject": "Trades executed at NSE",
          "is_read": false,
          "is_starred": false,
          "is_deleted": true,
          "has_attachment": true,
          "snippet": "<div style=\"text-align:left\">        <p>Dear Investor,</p>  </div>     <p>With reference to SEBI circular ref no. CIR/MIRSD/15/2011dated August 02, 20",
          "intent": null,
          "created_at": "2025-07-02T11:23:44.565000Z",
          "updated_at": null,
          "entities": {},
          "message_response": []
        }
      ]
    }
  }
}
